Wrangling II
…
--

3. ...By more than 20 points

---

# Breaking (3) down: the data

```r
elections
```

```
## # A tibble: 3,152 × 17
##    fips  name    state census_region    pop female white black travel_time land_area hh_income
##    <chr> <chr>   <chr> <chr>          <dbl>  <dbl> <dbl> <dbl>       <dbl>     <dbl>     <dbl>
##  1 01001 Autaug… AL    South          55395   51.5  78.1  18.4        26.2      594.     53682
##  2 01003 Baldwi… AL    South         200111   51.2  87.3   9.5        25.9     1590.     50221
##  3 01005 Barbou… AL    South          26887   46.5  50.2  47.6        24.6      885.     32911
##  4 01007 Bibb C… AL    South          22506   46    76.3  22.1        27.6      623.     36447
##  5 01009 Blount… AL    South          57719   50.6  96     1.8        33.9      645.     44145
##  6 01011 Bulloc… AL    South          10764   45.2  27.2  69.9        26.9      623.     32033
##  7 01013 Butler… AL    South          20296   53.4  54.3  43.6        24        777.     29918
##  8 01015 Calhou… AL    South         115916   51.7  76    20.9        22.5      606.     39962
##  9 01017 Chambe… AL    South          34076   52    58.8  39.1        24.6      597.     32402
## 10 01019 Cherok… AL    South          26037   50.4  93.2   4.5        26.9      554.     34907
## # … with 3,142 more rows, and 6 more variables: per_dem_2012 <dbl>, per_gop_2012 <dbl>,
## #   per_dem_2016 <dbl>, per_gop_2016 <dbl>, per_gop_2020 <dbl>, per_dem_2020 <dbl>
```

---

# Breaking (3) down: counties in California

```r
elections %>%
* filter(state == "CA")
```

```
## # A tibble: 58 × 17
##    fips  name    state census_region    pop female white black travel_time land_area hh_income
##    <chr> <chr>   <chr> <chr>          <dbl>  <dbl> <dbl> <dbl>       <dbl>     <dbl>     <dbl>
##  1 06001 Alamed… CA    West          1.61e6   51    52    12.4        28.8      739.     72112
##  2 06003 Alpine… CA    West          1.12e3   47.4  71.8   0.4        23.7      738.     58636
##  3 06005 Amador… CA    West          3.67e4   46.9  90.9   2.1        30        595.     53684
##  4 06007 Butte … CA    West          2.24e5   50.4  87     1.8        20.3     1636.     43752
##  5 06009 Calave… CA    West          4.46e4   50    92.1   1          35.5     1020.     55295
##  6 06011 Colusa… CA    West          2.14e4   48.3  91.6   1.2        21.2     1151.     52158
##  7 06013 Contra… CA    West          1.11e6   51.2  67.9   9.6        33.3      716.     78756
##  8 06015 Del No… CA    West          2.72e4   44.6  78.6   3.7        14.2     1006.     37909
##  9 06017 El Dor… CA    West          1.83e5   50    90.1   0.9        28.8     1708.     69297
## 10 06019 Fresno… CA    West          9.66e5   50    77.4   5.9        22.1     5958.     45563
## # … with 48 more rows, and 6 more variables: per_dem_2012 <dbl>, per_gop_2012 <dbl>,
## #   per_dem_2016 <dbl>, per_gop_2016 <dbl>, per_gop_2020 <dbl>, per_dem_2020 <dbl>
```

---

# Breaking (3) down: where Romney beat Obama

```r
elections %>%
  filter(state == "CA") %>%
* filter(per_gop_2012 > per_dem_2012)
```

```
## # A tibble: 29 × 17
##    fips  name    state census_region    pop female white black travel_time land_area hh_income
##    <chr> <chr>   <chr> <chr>          <dbl>  <dbl> <dbl> <dbl>       <dbl>     <dbl>     <dbl>
##  1 06005 Amador… CA    West           36742   46.9  90.9   2.1        30        595.     53684
##  2 06007 Butte … CA    West          224241   50.4  87     1.8        20.3     1636.     43752
##  3 06009 Calave… CA    West           44624   50    92.1   1          35.5     1020.     55295
##  4 06011 Colusa… CA    West           21419   48.3  91.6   1.2        21.2     1151.     52158
##  5 06015 Del No… CA    West           27212   44.6  78.6   3.7        14.2     1006.     37909
##  6 06017 El Dor… CA    West          183087   50    90.1   0.9        28.8     1708.     69297
##  7 06019 Fresno… CA    West          965974   50    77.4   5.9        22.1     5958.     45563
##  8 06021 Glenn … CA    West           27955   49.5  90.1   1.1        21.8     1314.     43023
##  9 06027 Inyo C… CA    West           18410   49.8  81.7   0.9        14.8    10181.     44796
## 10 06029 Kern C… CA    West          874589   48.7  82.9   6.3        23.6     8132.     48552
## # … with 19 more rows, and 6 more variables: per_dem_2012 <dbl>, per_gop_2012 <dbl>,
## #   per_dem_2016 <dbl>, per_gop_2016 <dbl>, per_gop_2020 <dbl>, per_dem_2020 <dbl>
```
…
--

Storing objects is very important! The original `elections` dataset remains unchanged!

```r
elections
```

```
## # A tibble: 3,152 × 17
##    fips  name    state census_region    pop female white black travel_time land_area hh_income
##    <chr> <chr>   <chr> <chr>          <dbl>  <dbl> <dbl> <dbl>       <dbl>     <dbl>     <dbl>
##  1 01001 Autaug… AL    South          55395   51.5  78.1  18.4        26.2      594.     53682
##  2 01003 Baldwi… AL    South         200111   51.2  87.3   9.5        25.9     1590.     50221
##  3 01005 Barbou… AL    South          26887   46.5  50.2  47.6        24.6      885.     32911
##  4 01007 Bibb C… AL    South          22506   46    76.3  22.1        27.6      623.     36447
##  5 01009 Blount… AL    South          57719   50.6  96     1.8        33.9      645.     44145
##  6 01011 Bulloc… AL    South          10764   45.2  27.2  69.9        26.9      623.     32033
##  7 01013 Butler… AL    South          20296   53.4  54.3  43.6        24        777.     29918
##  8 01015 Calhou… AL    South         115916   51.7  76    20.9        22.5      606.     39962
##  9 01017 Chambe… AL    South          34076   52    58.8  39.1        24.6      597.     32402
## 10 01019 Cherok… AL    South          26037   50.4  93.2   4.5        26.9      554.     34907
## # … with 3,142 more rows, and 6 more variables: per_dem_2012 <dbl>, per_gop_2012 <dbl>,
## #   per_dem_2016 <dbl>, per_gop_2016 <dbl>, per_gop_2020 <dbl>, per_dem_2020 <dbl>
```
…
???
Notice this is in minutes!

---

# How late? Convert to hours

```r
flights_small %>%
  mutate(how_late = dep_time - sched_dep_time) %>%
* mutate(how_late_hrs = how_late / 60)
```

```
## # A tibble: 336,776 × 6
##    month   day dep_time sched_dep_time how_late how_late_hrs
##    <int> <int>    <int>          <int>    <int>        <dbl>
##  1     1     1      517            515        2       0.0333
##  2     1     1      533            529        4       0.0667
##  3     1     1      542            540        2       0.0333
##  4     1     1      544            545       -1      -0.0167
##  5     1     1      554            600      -46      -0.767 
##  6     1     1      554            558       -4      -0.0667
##  7     1     1      555            600      -45      -0.75  
##  8     1     1      557            600      -43      -0.717 
##  9     1     1      557            600      -43      -0.717 
## 10     1     1      558            600      -42      -0.7   
## # … with 336,766 more rows
```
…
