Relationships
…
Once you load the `pokemon` data in your homework, it becomes an object; you can tell it's an object because: 

--

1. it shows up in the top-right screen (the "environment")
2. when you type it out and run it in R you can see the contents

--

```r
pokemon
```

```
## # A tibble: 801 × 14
##    name       type1 type2  height_m weight_kg capture_rate    hp attack defense
##    <chr>      <chr> <chr>     <dbl>     <dbl>        <dbl> <dbl>  <dbl>   <dbl>
##  1 Bulbasaur  grass poison      0.7       6.9           45    45     49      49
##  2 Ivysaur    grass poison      1        13             45    60     62      63
##  3 Venusaur   grass poison      2       100             45    80    100     123
##  4 Charmander fire  <NA>        0.6       8.5           45    39     52      43
##  5 Charmeleon fire  <NA>        1.1      19             45    58     64      58
##  6 Charizard  fire  flying      1.7      90.5           45    78    104      78
##  7 Squirtle   water <NA>        0.5       9             45    44     48      65
##  8 Wartortle  water <NA>        1        22.5           45    59     63      80
##  9 Blastoise  water <NA>        1.6      85.5           45    79    103     120
## 10 Caterpie   bug   <NA>        0.3       2.9          255    45     30      35
## # … with 791 more rows, and 5 more variables: sp_attack <dbl>, sp_defense <dbl>,
## #   speed <dbl>, generation <dbl>, is_legendary <dbl>
```

---

# Objects have variables

Columns like `type1` are *variables*

```r
pokemon
```

```
## # A tibble: 801 × 14
##    name       type1 type2  height_m weight_kg capture_rate    hp attack defense
##    <chr>      <chr> <chr>     <dbl>     <dbl>        <dbl> <dbl>  <dbl>   <dbl>
##  1 Bulbasaur  grass poison      0.7       6.9           45    45     49      49
##  2 Ivysaur    grass poison      1        13             45    60     62      63
##  3 Venusaur   grass poison      2       100             45    80    100     123
##  4 Charmander fire  <NA>        0.6       8.5           45    39     52      43
##  5 Charmeleon fire  <NA>        1.1      19             45    58     64      58
##  6 Charizard  fire  flying      1.7      90.5           45    78    104      78
##  7 Squirtle   water <NA>        0.5       9             45    44     48      65
##  8 Wartortle  water <NA>        1        22.5           45    59     63      80
##  9 Blastoise  water <NA>        1.6      85.5           45    79    103     120
## 10 Caterpie   bug   <NA>        0.3       2.9          255    45     30      35
## # … with 791 more rows, and 5 more variables: sp_attack <dbl>, sp_defense <dbl>,
## #   speed <dbl>, generation <dbl>, is_legendary <dbl>
```

---

# Objects

You can do stuff to objects, like subset based on rules (using `filter()`), creating new **variables** (with `mutate()`), etc. 

```r
pokemon %>% 
  filter(type1 == "grass") %>% 
  mutate(height_mm = height_m * 1000)
```

```
## # A tibble: 78 × 15
##    name       type1 type2   height_m weight_kg capture_rate    hp attack defense
##    <chr>      <chr> <chr>      <dbl>     <dbl>        <dbl> <dbl>  <dbl>   <dbl>
##  1 Bulbasaur  grass poison       0.7       6.9           45    45     49      49
##  2 Ivysaur    grass poison       1        13             45    60     62      63
##  3 Venusaur   grass poison       2       100             45    80    100     123
##  4 Oddish     grass poison       0.5       5.4          255    45     50      55
##  5 Gloom      grass poison       0.8       8.6          120    60     65      70
##  6 Vileplume  grass poison       1.2      18.6           45    75     80      85
##  7 Bellsprout grass poison       0.7       4            255    50     75      35
##  8 Weepinbell grass poison       1         6.4          120    65     90      50
##  9 Victreebel grass poison       1.7      15.5           45    80    105      65
## 10 Exeggcute  grass psychic      0.4       2.5           90    60     40      80
## # … with 68 more rows, and 6 more variables: sp_attack <dbl>, sp_defense <dbl>,
## #   speed <dbl>, generation <dbl>, is_legendary <dbl>, height_mm <dbl>
```

---

# Objects

But notice that the original pokemon data remains unchanged!

```r
pokemon
```

```
## # A tibble: 801 × 14
##    name       type1 type2  height_m weight_kg capture_rate    hp attack defense
##    <chr>      <chr> <chr>     <dbl>     <dbl>        <dbl> <dbl>  <dbl>   <dbl>
##  1 Bulbasaur  grass poison      0.7       6.9           45    45     49      49
##  2 Ivysaur    grass poison      1        13             45    60     62      63
##  3 Venusaur   grass poison      2       100             45    80    100     123
##  4 Charmander fire  <NA>        0.6       8.5           45    39     52      43
##  5 Charmeleon fire  <NA>        1.1      19             45    58     64      58
##  6 Charizard  fire  flying      1.7      90.5           45    78    104      78
##  7 Squirtle   water <NA>        0.5       9             45    44     48      65
##  8 Wartortle  water <NA>        1        22.5           45    59     63      80
##  9 Blastoise  water <NA>        1.6      85.5           45    79    103     120
## 10 Caterpie   bug   <NA>        0.3       2.9          255    45     30      35
## # … with 791 more rows, and 5 more variables: sp_attack <dbl>, sp_defense <dbl>,
## #   speed <dbl>, generation <dbl>, is_legendary <dbl>
```
…
---

# Storing our changes as objects

Whenever we want to *alter* an object and *keep track* of those changes, we have to store them as a new object

```r
grass_pokemon
```

```
## # A tibble: 78 × 15
##    name       type1 type2   height_m weight_kg capture_rate    hp attack defense
##    <chr>      <chr> <chr>      <dbl>     <dbl>        <dbl> <dbl>  <dbl>   <dbl>
##  1 Bulbasaur  grass poison       0.7       6.9           45    45     49      49
##  2 Ivysaur    grass poison       1        13             45    60     62      63
##  3 Venusaur   grass poison       2       100             45    80    100     123
##  4 Oddish     grass poison       0.5       5.4          255    45     50      55
##  5 Gloom      grass poison       0.8       8.6          120    60     65      70
##  6 Vileplume  grass poison       1.2      18.6           45    75     80      85
##  7 Bellsprout grass poison       0.7       4            255    50     75      35
##  8 Weepinbell grass poison       1         6.4          120    65     90      50
##  9 Victreebel grass poison       1.7      15.5           45    80    105      65
## 10 Exeggcute  grass psychic      0.4       2.5           90    60     40      80
## # … with 68 more rows, and 6 more variables: sp_attack <dbl>, sp_defense <dbl>,
## #   speed <dbl>, generation <dbl>, is_legendary <dbl>, height_mm <dbl>
```
…
---

# Using `summarize()`

Say I want to know the average life expectancy in the world in 2007:

--

```r
gapminder %>% 
* filter(year == 2007)
```

```
## # A tibble: 142 × 6
##    country     continent  year lifeExp       pop gdpPercap
##    <fct>       <fct>     <int>   <dbl>     <int>     <dbl>
##  1 Afghanistan Asia       2007    43.8  31889923      975.
##  2 Albania     Europe     2007    76.4   3600523     5937.
##  3 Algeria     Africa     2007    72.3  33333216     6223.
##  4 Angola      Africa     2007    42.7  12420476     4797.
##  5 Argentina   Americas   2007    75.3  40301927    12779.
##  6 Australia   Oceania    2007    81.2  20434176    34435.
##  7 Austria     Europe     2007    79.8   8199783    36126.
##  8 Bahrain     Asia       2007    75.6    708573    29796.
##  9 Bangladesh  Asia       2007    64.1 150448339     1391.
## 10 Belgium     Europe     2007    79.4  10392226    33693.
## # … with 132 more rows
```
…
# Life expectancy over time

And use our object to make plots:

<img src="05-relationships_files/figure-html/unnamed-chunk-28-1.png" width="100%" />

---

# Using `group_by()`

We can even `group_by()` multiple variables 🤯: 

```
## # A tibble: 60 × 3
## # Groups:   year [12]
##     year continent avg_life
##    <int> <fct>        <dbl>
##  1  1952 Africa        39.1
##  2  1952 Americas      53.3
##  3  1952 Asia          46.3
##  4  1952 Europe        64.4
##  5  1952 Oceania       69.3
##  6  1957 Africa        41.3
##  7  1957 Americas      56.0
##  8  1957 Asia          49.3
##  9  1957 Europe        66.7
## 10  1957 Oceania       70.3
## # … with 50 more rows
```
…
