Relationships II
…
# Making sense of the migration gap

We can (very imperfectly with this data!) "test" this concern by breaking the data down further, by race: 

--

```r
therm %>% 
  filter(party_id %in% c("Democrat", "Republican", "Independent")) %>%
* group_by(party_id, race) %>%
  summarise(avg_imm = mean(ft_immig, na.rm = TRUE))
```

```
## # A tibble: 22 × 3
## # Groups:   party_id [3]
##    party_id   race            avg_imm
##    <fct>      <fct>             <dbl>
##  1 Democrat   White              71.2
##  2 Democrat   Black              71.1
##  3 Democrat   Hispanic           76.2
##  4 Democrat   Asian              75.5
##  5 Democrat   Native American    62.9
##  6 Democrat   Mixed              74.6
##  7 Democrat   Other              84.1
##  8 Republican White              49.8
##  9 Republican Black              54.6
## 10 Republican Hispanic           58.0
## # … with 12 more rows
```
…
---

# Counting categories

We can use a new function `tally()`, in combination with `group_by()`, to **count** how many observations are in each category:

```r
pokemon
```

```
## # A tibble: 801 × 14
##    name       type1 type2  height_m weight_kg capture_rate    hp attack defense sp_attack sp_defense speed generation is_legendary
##    <chr>      <chr> <chr>     <dbl>     <dbl>        <dbl> <dbl>  <dbl>   <dbl>     <dbl>      <dbl> <dbl>      <dbl>        <dbl>
##  1 Bulbasaur  grass poison      0.7       6.9           45    45     49      49        65         65    45          1            0
##  2 Ivysaur    grass poison      1        13             45    60     62      63        80         80    60          1            0
##  3 Venusaur   grass poison      2       100             45    80    100     123       122        120    80          1            0
##  4 Charmander fire  <NA>        0.6       8.5           45    39     52      43        60         50    65          1            0
##  5 Charmeleon fire  <NA>        1.1      19             45    58     64      58        80         65    80          1            0
##  6 Charizard  fire  flying      1.7      90.5           45    78    104      78       159        115   100          1            0
##  7 Squirtle   water <NA>        0.5       9             45    44     48      65        50         64    43          1            0
##  8 Wartortle  water <NA>        1        22.5           45    59     63      80        65         80    58          1            0
##  9 Blastoise  water <NA>        1.6      85.5           45    79    103     120       135        115    78          1            0
## 10 Caterpie   bug   <NA>        0.3       2.9          255    45     30      35        20         20    45          1            0
## # … with 791 more rows
```

---

# Counting categories

We can use a new function `tally()`, in combination with `group_by()`, to **count** how many observations are in each category:

```r
pokemon %>% 
* group_by(type1)
```

```
## # A tibble: 801 × 14
## # Groups:   type1 [18]
##    name       type1 type2  height_m weight_kg capture_rate    hp attack defense sp_attack sp_defense speed generation is_legendary
##    <chr>      <chr> <chr>     <dbl>     <dbl>        <dbl> <dbl>  <dbl>   <dbl>     <dbl>      <dbl> <dbl>      <dbl>        <dbl>
##  1 Bulbasaur  grass poison      0.7       6.9           45    45     49      49        65         65    45          1            0
##  2 Ivysaur    grass poison      1        13             45    60     62      63        80         80    60          1            0
##  3 Venusaur   grass poison      2       100             45    80    100     123       122        120    80          1            0
##  4 Charmander fire  <NA>        0.6       8.5           45    39     52      43        60         50    65          1            0
##  5 Charmeleon fire  <NA>        1.1      19             45    58     64      58        80         65    80          1            0
##  6 Charizard  fire  flying      1.7      90.5           45    78    104      78       159        115   100          1            0
##  7 Squirtle   water <NA>        0.5       9             45    44     48      65        50         64    43          1            0
##  8 Wartortle  water <NA>        1        22.5           45    59     63      80        65         80    58          1            0
##  9 Blastoise  water <NA>        1.6      85.5           45    79    103     120       135        115    78          1            0
## 10 Caterpie   bug   <NA>        0.3       2.9          255    45     30      35        20         20    45          1            0
## # … with 791 more rows
```
…
