Prediction
…
# Prediction

We can also look at what happens when one variable changes a lot, while the others stay the same, using the `seq()` function

```r
varying_hp = crossing(wt = 3, 
                      cyl = 4, 
                      hp = seq(from = 50, to = 340, by = 5),
                      am = 1)

augment(big_model, newdata = varying_hp)
```

```
## # A tibble: 59 × 5
##       wt   cyl    hp    am .fitted
##    <dbl> <dbl> <dbl> <dbl>   <dbl>
##  1     3     4    50     1    25.6
##  2     3     4    55     1    25.5
##  3     3     4    60     1    25.3
##  4     3     4    65     1    25.2
##  5     3     4    70     1    25.1
##  6     3     4    75     1    25.0
##  7     3     4    80     1    24.8
##  8     3     4    85     1    24.7
##  9     3     4    90     1    24.6
## 10     3     4    95     1    24.5
## # … with 49 more rows
```
…
---

# Predicting health

We could go *even* further, and also vary the continent the country is in: 

```
## # A tibble: 80 × 5
##    gdpPercap      pop  year continent .fitted
##        <dbl>    <dbl> <dbl> <chr>       <dbl>
##  1      5000 20000000  2005 Africa       57.0
##  2      5000 20000000  2005 Americas     71.3
##  3      5000 20000000  2005 Asia         66.4
##  4      5000 20000000  2005 Europe       76.4
##  5     10000 20000000  2005 Africa       58.5
##  6     10000 20000000  2005 Americas     72.8
##  7     10000 20000000  2005 Asia         67.9
##  8     10000 20000000  2005 Europe       77.9
##  9     15000 20000000  2005 Africa       60.0
## 10     15000 20000000  2005 Americas     74.3
## # … with 70 more rows
```
…
