Causality
…
--

We can generate random numbers that are pretty close to 50 (a tie), plus or minus 5 points

--

.scroll-output[

```r
*fake_election = tibble(gop_share = rnorm(n = 100, mean = 50, sd = 5))
fake_election
```

```
## # A tibble: 100 × 1
##    gop_share
##        <dbl>
##  1      47.5
##  2      58.8
##  3      50.9
##  4      50.3
##  5      48.0
##  6      54.0
##  7      46.5
##  8      49.5
##  9      41.4
## 10      46.5
## # … with 90 more rows
```
…
--

We can do that in R like so: 

.scroll-output[

```r
fake_election = tibble(gop_share = rnorm(n = 100, mean = 50, sd = 5), 
*                      donations = 2000 * gop_share)
fake_election
```

```
## # A tibble: 100 × 2
##    gop_share donations
##        <dbl>     <dbl>
##  1      48.2    96423.
##  2      50.2   100401.
##  3      48.4    96780.
##  4      33.6    67241.
##  5      48.2    96409.
##  6      53.0   106053.
##  7      45.5    91033.
##  8      51.6   103182.
##  9      47.9    95884.
## 10      47.3    94570.
## # … with 90 more rows
```
…
What if we make this more difficult on the model? Let's add some random **noise**

--

.scroll-output[

```r
fake_election = tibble(gop_share = rnorm(n = 100, mean = 50, sd = 5), 
*                      donations = 2000 * gop_share + rnorm(n = 100, mean = 10, sd = 2))
fake_election
```

```
## # A tibble: 100 × 2
##    gop_share donations
##        <dbl>     <dbl>
##  1      47.3    94593.
##  2      49.4    98761.
##  3      56.3   112645.
##  4      46.2    92386.
##  5      43.8    87699.
##  6      49.7    99381.
##  7      51.8   103541.
##  8      54.1   108169.
##  9      50.1   100274.
## 10      52.5   105003.
## # … with 90 more rows
```
…
