Causality II
…
Let's make up data to convince ourselves this is true

--

fifty states, about half of them are in the South in this made-up example

--

```r
tibble(south = sample(c(0, 1), size = 50, replace = TRUE))
```

```
## # A tibble: 50 × 1
##    south
##    <dbl>
##  1     0
##  2     1
##  3     1
##  4     1
##  5     0
##  6     1
##  7     0
##  8     0
##  9     0
## 10     0
## # … with 40 more rows
```

---

# Simulation to convince ourselves

Make Waffle houses, which are more **common** in the South

```r
tibble(south = sample(c(0, 1), size = 50, replace = TRUE), 
*      waffle = rnorm(n = 50, mean = 20, sd = 4) + 10*south)
```

```
## # A tibble: 50 × 2
##    south waffle
##    <dbl>  <dbl>
##  1     1   25.5
##  2     1   29.1
##  3     0   18.6
##  4     1   28.0
##  5     1   34.4
##  6     0   16.6
##  7     1   36.1
##  8     1   30.8
##  9     0   11.8
## 10     0   19.0
## # … with 40 more rows
```
…
