…
That distribution of bootstrapped estimates gives us a sense for how much an estimate might vary from sample to sample.

Bootstrapping averages

Let’s do this with the infer package, to estimate the number of kids the average American has.

gss_sm %>% 
  # specify the outcome variable
  specify(response = childs) %>% 
  # generate the bootstrapped samples
  generate(reps = 1000, type = "bootstrap")

## Response: childs (numeric)
## # A tibble: 2,859,000 x 2
## # Groups:   replicate [1,000]
##    replicate childs
##        <int>  <dbl>
##  1         1      2
##  2         1      0
##  3         1      2
##  4         1      0
##  5         1      3
##  6         1      0
##  7         1      2
##  8         1      1
##  9         1      4
## 10         1      0
## # … with 2,858,990 more rows

Notice how each of the 1,000 bootstrapped samples has the same number of observations as the original dataset.

The above is equivalent to doing this 1,000 times:

gss_sm %>% 
  # subset down to just kids
  select(childs) %>% 
  # sample with replacement, same size as original dataset
  sample_n(nrow(gss_sm), replace = TRUE)

## # A tibble: 2,867 x 1
##    childs
##     <dbl>
##  1      0
##  2      5
##  3      1
##  4      7
##  5      7
##  6      5
##  7      2
##  8      4
##  9      3
## 10      2
## # … with 2,857 more rows

We can then calculate the average number of kids in each of those 1,000 bootstraps:

boot_kids = gss_sm %>% 
  # specify the outcome variable
  specify(response = childs) %>% 
  # generate the bootstrapped samples
  generate(reps = 1000, type = "bootstrap") %>% 
  # find the average # of kids in each bootstrap sample
  calculate(stat = "mean")

boot_kids

## # A tibble: 1,000 x 2
##    replicate  stat
##        <int> <dbl>
##  1         1  1.88
##  2         2  1.85
##  3         3  1.87
##  4         4  1.85
##  5         5  1.84
##  6         6  1.86
##  7         7  1.86
##  8         8  1.82
##  9         9  1.81
## 10        10  1.83
## # … with 990 more rows
…
