…
Remember that in an experiment, we randomize assignment to some treatment, measure an outcome we care about, and compare whether the units that got the treatment have better or worse results on the outcome than the group that didn’t get the treatment.

We can simulate a fake experiment (on rats) using R:

library(tidyverse)
library(broom)

rats = tibble(rat_id = 1:200, 
              vaccine = sample(c(1, 0), size = 200, 
                               replace = TRUE)) %>% 
  mutate(covid_levels = -2*vaccine + rnorm(200))

rats

## # A tibble: 200 x 3
##    rat_id vaccine covid_levels
##     <int>   <dbl>        <dbl>
##  1      1       1      -3.07  
##  2      2       1      -3.19  
##  3      3       1      -2.57  
##  4      4       0      -0.534 
##  5      5       1      -2.95  
##  6      6       1      -0.922 
##  7      7       1      -2.32  
##  8      8       0       0.314 
##  9      9       0      -0.0918
## 10     10       1      -1.84  
## # … with 190 more rows
…
