…
pivot_longer

We can use the pivot_longer function to make data that is in “wide” format into “long” format.

Here’s an example, using the masculinity survey from fivethirtyeight.

# load libraries
library(tidyverse)
library(fivethirtyeight)

# different dataset on masculinity
masculinity_survey

## # A tibble: 189 x 12
##    question response overall age_18_34 age_35_64 age_65_over white_yes white_no
##    <fct>    <fct>      <dbl>     <dbl>     <dbl>       <dbl>     <dbl>    <dbl>
##  1 "In gen… Very ma…    0.37     0.290      0.42        0.37      0.34     0.44
##  2 "In gen… Somewha…    0.46     0.47       0.46        0.47      0.5      0.39
##  3 "In gen… Not ver…    0.11     0.13       0.09        0.13      0.11     0.11
##  4 "In gen… Not at …    0.05     0.1        0.02        0.03      0.04     0.06
##  5 "In gen… No answ…    0.01     0          0.01        0.01      0.01     0   
##  6 "How im… Very im…    0.16     0.18       0.17        0.13      0.11     0.26
##  7 "How im… Somewha…    0.37     0.38       0.37        0.32      0.38     0.35
##  8 "How im… Not too…    0.28     0.18       0.31        0.37      0.32     0.2 
##  9 "How im… Not at …    0.18     0.26       0.15        0.18      0.18     0.19
## 10 "How im… No answ…    0        0          0.01        0         0        0   
## # … with 179 more rows, and 4 more variables: children_yes <dbl>,
## #   children_no <dbl>, straight_yes <dbl>, straight_no <dbl>
…
