…
Why not just take an average?

Compare, for instance, against simply taking the average of every wt value. Weakness here is that we only have exact guesses for values of X for which we have data. No exact guess, for example, for a car that weighs exactly 2 tons:

# manually
mtcars %>% 
  group_by(wt) %>% 
  summarise(ave_mpg = mean(mpg, na.rm = TRUE)) 

## `summarise()` ungrouping output (override with `.groups` argument)

## # A tibble: 29 x 2
##       wt ave_mpg
##    <dbl>   <dbl>
##  1  1.51    30.4
##  2  1.62    30.4
##  3  1.84    33.9
##  4  1.94    27.3
##  5  2.14    26  
##  6  2.2     32.4
##  7  2.32    22.8
##  8  2.46    21.5
##  9  2.62    21  
## 10  2.77    19.7
## # … with 19 more rows
